<?xml version="1.0"?>
<font>
  <info face="Roboto" size="21" bold="0" italic="0" charset="" unicode="1" stretchH="100" smooth="1" aa="1" padding="1,1,1,1" spacing="1,1" outline="0"/>
  <common lineHeight="21" base="17" scaleW="256" scaleH="256" pages="1" packed="0" alphaChnl="0" redChnl="4" greenChnl="4" blueChnl="4"/>
  <pages>
    <page id="0" file="roboto_0.png" />
  </pages>
  <chars count="246">
    <char id="0" x="229" y="151" width="3" height="3" xoffset="-1" yoffset="-1" xadvance="0" page="0" chnl="15" />
    <char id="9" x="252" y="0" width="3" height="3" xoffset="-1" yoffset="-1" xadvance="0" page="0" chnl="15" />
    <char id="13" x="251" y="121" width="3" height="3" xoffset="-1" yoffset="-1" xadvance="4" page="0" chnl="15" />
    <char id="32" x="221" y="151" width="3" height="3" xoffset="-1" yoffset="-1" xadvance="4" page="0" chnl="15" />
    <char id="33" x="69" y="124" width="5" height="15" xoffset="0" yoffset="3" xadvance="5" page="0" chnl="15" />
    <char id="34" x="244" y="134" width="8" height="8" xoffset="0" yoffset="3" xadvance="7" page="0" chnl="15" />
    <char id="35" x="60" y="92" width="13" height="15" xoffset="-1" yoffset="3" xadvance="10" page="0" chnl="15" />
    <char id="36" x="113" y="20" width="12" height="19" xoffset="-1" yoffset="1" xadvance="10" page="0" chnl="15" />
    <char id="37" x="169" y="74" width="15" height="15" xoffset="-1" yoffset="3" xadvance="13" page="0" chnl="15" />
    <char id="38" x="200" y="74" width="14" height="15" xoffset="-1" yoffset="3" xadvance="12" page="0" chnl="15" />
    <char id="39" x="33" y="156" width="6" height="8" xoffset="-1" yoffset="3" xadvance="4" page="0" chnl="15" />
    <char id="40" x="9" y="0" width="7" height="21" xoffset="0" yoffset="1" xadvance="6" page="0" chnl="15" />
    <char id="41" x="0" y="0" width="8" height="21" xoffset="-1" yoffset="1" xadvance="6" page="0" chnl="15" />
    <char id="42" x="224" y="135" width="10" height="9" xoffset="-1" yoffset="6" xadvance="7" page="0" chnl="15" />
    <char id="43" x="111" y="122" width="12" height="13" xoffset="-1" yoffset="5" xadvance="10" page="0" chnl="15" />
    <char id="44" x="140" y="147" width="6" height="7" xoffset="-1" yoffset="14" xadvance="5" page="0" chnl="15" />
    <char id="45" x="93" y="160" width="8" height="5" xoffset="0" yoffset="9" xadvance="8" page="0" chnl="15" />
    <char id="46" x="171" y="153" width="5" height="4" xoffset="0" yoffset="14" xadvance="5" page="0" chnl="15" />
    <char id="47" x="33" y="41" width="11" height="17" xoffset="-2" yoffset="3" xadvance="7" page="0" chnl="15" />
    <char id="48" x="26" y="111" width="12" height="15" xoffset="-1" yoffset="3" xadvance="10" page="0" chnl="15" />
    <char id="49" x="20" y="78" width="8" height="16" xoffset="0" yoffset="2" xadvance="10" page="0" chnl="15" />
    <char id="50" x="0" y="111" width="12" height="15" xoffset="-1" yoffset="3" xadvance="10" page="0" chnl="15" />
    <char id="51" x="240" y="89" width="12" height="15" xoffset="-1" yoffset="3" xadvance="10" page="0" chnl="15" />
    <char id="52" x="195" y="106" width="12" height="15" xoffset="-1" yoffset="3" xadvance="10" page="0" chnl="15" />
    <char id="53" x="169" y="106" width="12" height="15" xoffset="-1" yoffset="3" xadvance="10" page="0" chnl="15" />
    <char id="54" x="156" y="106" width="12" height="15" xoffset="-1" yoffset="3" xadvance="10" page="0" chnl="15" />
    <char id="55" x="143" y="106" width="12" height="15" xoffset="-1" yoffset="3" xadvance="10" page="0" chnl="15" />
    <char id="56" x="91" y="107" width="12" height="15" xoffset="-1" yoffset="3" xadvance="10" page="0" chnl="15" />
    <char id="57" x="78" y="108" width="12" height="15" xoffset="-1" yoffset="3" xadvance="10" page="0" chnl="15" />
    <char id="58" x="86" y="139" width="5" height="12" xoffset="0" yoffset="6" xadvance="5" page="0" chnl="15" />
    <char id="59" x="56" y="126" width="6" height="15" xoffset="-1" yoffset="6" xadvance="5" page="0" chnl="15" />
    <char id="60" x="104" y="138" width="10" height="11" xoffset="-1" yoffset="7" xadvance="9" page="0" chnl="15" />
    <char id="61" x="201" y="135" width="11" height="9" xoffset="0" yoffset="7" xadvance="10" page="0" chnl="15" />
    <char id="62" x="92" y="139" width="11" height="11" xoffset="-1" yoffset="7" xadvance="9" page="0" chnl="15" />
    <char id="63" x="220" y="106" width="11" height="15" xoffset="-1" yoffset="3" xadvance="9" page="0" chnl="15" />
    <char id="64" x="83" y="0" width="18" height="19" xoffset="-1" yoffset="3" xadvance="16" page="0" chnl="15" />
    <char id="65" x="15" y="95" width="14" height="15" xoffset="-1" yoffset="3" xadvance="11" page="0" chnl="15" />
    <char id="66" x="227" y="89" width="12" height="15" xoffset="0" yoffset="3" xadvance="11" page="0" chnl="15" />
    <char id="67" x="186" y="90" width="13" height="15" xoffset="-1" yoffset="3" xadvance="11" page="0" chnl="15" />
    <char id="68" x="214" y="90" width="12" height="15" xoffset="0" yoffset="3" xadvance="12" page="0" chnl="15" />
    <char id="69" x="232" y="105" width="11" height="15" xoffset="0" yoffset="3" xadvance="10" page="0" chnl="15" />
    <char id="70" x="24" y="127" width="11" height="15" xoffset="0" yoffset="3" xadvance="10" page="0" chnl="15" />
    <char id="71" x="158" y="90" width="13" height="15" xoffset="-1" yoffset="3" xadvance="12" page="0" chnl="15" />
    <char id="72" x="144" y="90" width="13" height="15" xoffset="0" yoffset="3" xadvance="12" page="0" chnl="15" />
    <char id="73" x="63" y="126" width="5" height="15" xoffset="0" yoffset="3" xadvance="5" page="0" chnl="15" />
    <char id="74" x="208" y="106" width="11" height="15" xoffset="-1" yoffset="3" xadvance="10" page="0" chnl="15" />
    <char id="75" x="116" y="90" width="13" height="15" xoffset="0" yoffset="3" xadvance="11" page="0" chnl="15" />
    <char id="76" x="0" y="127" width="11" height="15" xoffset="0" yoffset="3" xadvance="10" page="0" chnl="15" />
    <char id="77" x="135" y="74" width="16" height="15" xoffset="0" yoffset="3" xadvance="15" page="0" chnl="15" />
    <char id="78" x="102" y="90" width="13" height="15" xoffset="0" yoffset="3" xadvance="12" page="0" chnl="15" />
    <char id="79" x="45" y="94" width="14" height="15" xoffset="-1" yoffset="3" xadvance="12" page="0" chnl="15" />
    <char id="80" x="104" y="106" width="12" height="15" xoffset="0" yoffset="3" xadvance="11" page="0" chnl="15" />
    <char id="81" x="17" y="42" width="15" height="17" xoffset="-1" yoffset="3" xadvance="12" page="0" chnl="15" />
    <char id="82" x="117" y="106" width="12" height="15" xoffset="0" yoffset="3" xadvance="11" page="0" chnl="15" />
    <char id="83" x="88" y="91" width="13" height="15" xoffset="-1" yoffset="3" xadvance="11" page="0" chnl="15" />
    <char id="84" x="74" y="92" width="13" height="15" xoffset="-1" yoffset="3" xadvance="10" page="0" chnl="15" />
    <char id="85" x="30" y="94" width="14" height="15" xoffset="-1" yoffset="3" xadvance="12" page="0" chnl="15" />
    <char id="86" x="215" y="73" width="14" height="15" xoffset="-1" yoffset="3" xadvance="11" page="0" chnl="15" />
    <char id="87" x="99" y="74" width="18" height="15" xoffset="-1" yoffset="3" xadvance="15" page="0" chnl="15" />
    <char id="88" x="230" y="73" width="14" height="15" xoffset="-1" yoffset="3" xadvance="11" page="0" chnl="15" />
    <char id="89" x="0" y="95" width="14" height="15" xoffset="-1" yoffset="3" xadvance="11" page="0" chnl="15" />
    <char id="90" x="182" y="106" width="12" height="15" xoffset="-1" yoffset="3" xadvance="10" page="0" chnl="15" />
    <char id="91" x="60" y="0" width="7" height="20" xoffset="-1" yoffset="1" xadvance="5" page="0" chnl="15" />
    <char id="92" x="45" y="41" width="10" height="17" xoffset="-1" yoffset="3" xadvance="7" page="0" chnl="15" />
    <char id="93" x="76" y="0" width="6" height="20" xoffset="-1" yoffset="1" xadvance="5" page="0" chnl="15" />
    <char id="94" x="213" y="135" width="10" height="9" xoffset="-1" yoffset="3" xadvance="8" page="0" chnl="15" />
    <char id="95" x="0" y="165" width="10" height="5" xoffset="-1" yoffset="15" xadvance="8" page="0" chnl="15" />
    <char id="96" x="111" y="158" width="8" height="5" xoffset="-1" yoffset="2" xadvance="6" page="0" chnl="15" />
    <char id="97" x="199" y="122" width="12" height="12" xoffset="-1" yoffset="6" xadvance="9" page="0" chnl="15" />
    <char id="98" x="120" y="40" width="12" height="16" xoffset="-1" yoffset="2" xadvance="10" page="0" chnl="15" />
    <char id="99" x="26" y="143" width="11" height="12" xoffset="-1" yoffset="6" xadvance="9" page="0" chnl="15" />
    <char id="100" x="133" y="40" width="12" height="16" xoffset="-1" yoffset="2" xadvance="10" page="0" chnl="15" />
    <char id="101" x="38" y="143" width="11" height="12" xoffset="-1" yoffset="6" xadvance="9" page="0" chnl="15" />
    <char id="102" x="0" y="78" width="9" height="16" xoffset="-1" yoffset="2" xadvance="6" page="0" chnl="15" />
    <char id="103" x="156" y="57" width="12" height="16" xoffset="-1" yoffset="6" xadvance="10" page="0" chnl="15" />
    <char id="104" x="159" y="40" width="12" height="16" xoffset="-1" yoffset="2" xadvance="10" page="0" chnl="15" />
    <char id="105" x="250" y="39" width="5" height="16" xoffset="0" yoffset="2" xadvance="5" page="0" chnl="15" />
    <char id="106" x="68" y="0" width="7" height="20" xoffset="-2" yoffset="2" xadvance="5" page="0" chnl="15" />
    <char id="107" x="185" y="40" width="12" height="16" xoffset="-1" yoffset="2" xadvance="9" page="0" chnl="15" />
    <char id="108" x="47" y="76" width="5" height="16" xoffset="0" yoffset="2" xadvance="5" page="0" chnl="15" />
    <char id="109" x="165" y="122" width="17" height="12" xoffset="-1" yoffset="6" xadvance="15" page="0" chnl="15" />
    <char id="110" x="238" y="121" width="12" height="12" xoffset="-1" yoffset="6" xadvance="10" page="0" chnl="15" />
    <char id="111" x="0" y="143" width="12" height="12" xoffset="-1" yoffset="6" xadvance="10" page="0" chnl="15" />
    <char id="112" x="198" y="39" width="12" height="16" xoffset="-1" yoffset="6" xadvance="10" page="0" chnl="15" />
    <char id="113" x="211" y="39" width="12" height="16" xoffset="-1" yoffset="6" xadvance="10" page="0" chnl="15" />
    <char id="114" x="137" y="122" width="9" height="13" xoffset="-1" yoffset="5" xadvance="6" page="0" chnl="15" />
    <char id="115" x="74" y="140" width="11" height="12" xoffset="-1" yoffset="6" xadvance="9" page="0" chnl="15" />
    <char id="116" x="47" y="126" width="8" height="15" xoffset="-1" yoffset="3" xadvance="6" page="0" chnl="15" />
    <char id="117" x="13" y="143" width="12" height="12" xoffset="-1" yoffset="6" xadvance="10" page="0" chnl="15" />
    <char id="118" x="212" y="122" width="12" height="12" xoffset="-1" yoffset="6" xadvance="9" page="0" chnl="15" />
    <char id="119" x="183" y="122" width="15" height="12" xoffset="-1" yoffset="6" xadvance="13" page="0" chnl="15" />
    <char id="120" x="225" y="122" width="12" height="12" xoffset="-1" yoffset="6" xadvance="9" page="0" chnl="15" />
    <char id="121" x="39" y="59" width="12" height="16" xoffset="-1" yoffset="6" xadvance="9" page="0" chnl="15" />
    <char id="122" x="50" y="142" width="11" height="12" xoffset="-1" yoffset="6" xadvance="9" page="0" chnl="15" />
    <char id="123" x="42" y="0" width="8" height="20" xoffset="-1" yoffset="1" xadvance="6" page="0" chnl="15" />
    <char id="124" x="11" y="42" width="5" height="18" xoffset="0" yoffset="3" xadvance="4" page="0" chnl="15" />
    <char id="125" x="51" y="0" width="8" height="20" xoffset="-1" yoffset="1" xadvance="6" page="0" chnl="15" />
    <char id="126" x="64" y="155" width="13" height="7" xoffset="-1" yoffset="9" xadvance="11" page="0" chnl="15" />
    <char id="160" x="177" y="153" width="3" height="3" xoffset="-1" yoffset="-1" xadvance="4" page="0" chnl="15" />
    <char id="161" x="53" y="76" width="5" height="16" xoffset="0" yoffset="6" xadvance="5" page="0" chnl="15" />
    <char id="162" x="229" y="56" width="11" height="16" xoffset="-1" yoffset="4" xadvance="10" page="0" chnl="15" />
    <char id="163" x="172" y="90" width="13" height="15" xoffset="-1" yoffset="3" xadvance="10" page="0" chnl="15" />
    <char id="164" x="185" y="74" width="14" height="15" xoffset="-1" yoffset="4" xadvance="12" page="0" chnl="15" />
    <char id="165" x="130" y="90" width="13" height="15" xoffset="-1" yoffset="3" xadvance="11" page="0" chnl="15" />
    <char id="166" x="247" y="20" width="5" height="18" xoffset="0" yoffset="3" xadvance="4" page="0" chnl="15" />
    <char id="167" x="73" y="21" width="13" height="19" xoffset="-1" yoffset="3" xadvance="11" page="0" chnl="15" />
    <char id="168" x="33" y="165" width="10" height="5" xoffset="0" yoffset="3" xadvance="9" page="0" chnl="15" />
    <char id="169" x="118" y="74" width="16" height="15" xoffset="-1" yoffset="3" xadvance="14" page="0" chnl="15" />
    <char id="170" x="148" y="135" width="9" height="10" xoffset="-1" yoffset="3" xadvance="8" page="0" chnl="15" />
    <char id="171" x="115" y="136" width="10" height="10" xoffset="-1" yoffset="8" xadvance="9" page="0" chnl="15" />
    <char id="172" x="78" y="153" width="10" height="7" xoffset="0" yoffset="8" xadvance="10" page="0" chnl="15" />
    <char id="173" x="84" y="161" width="8" height="5" xoffset="0" yoffset="9" xadvance="8" page="0" chnl="15" />
    <char id="174" x="152" y="74" width="16" height="15" xoffset="-1" yoffset="3" xadvance="14" page="0" chnl="15" />
    <char id="175" x="44" y="165" width="9" height="5" xoffset="0" yoffset="3" xadvance="9" page="0" chnl="15" />
    <char id="176" x="125" y="147" width="7" height="7" xoffset="0" yoffset="3" xadvance="7" page="0" chnl="15" />
    <char id="177" x="88" y="124" width="11" height="14" xoffset="-1" yoffset="4" xadvance="9" page="0" chnl="15" />
    <char id="178" x="168" y="135" width="9" height="10" xoffset="-1" yoffset="3" xadvance="7" page="0" chnl="15" />
    <char id="179" x="158" y="135" width="9" height="10" xoffset="-1" yoffset="3" xadvance="7" page="0" chnl="15" />
    <char id="180" x="102" y="159" width="8" height="5" xoffset="-1" yoffset="2" xadvance="6" page="0" chnl="15" />
    <char id="181" x="241" y="56" width="11" height="16" xoffset="0" yoffset="6" xadvance="11" page="0" chnl="15" />
    <char id="182" x="244" y="105" width="11" height="15" xoffset="-1" yoffset="3" xadvance="9" page="0" chnl="15" />
    <char id="183" x="141" y="155" width="5" height="5" xoffset="0" yoffset="9" xadvance="5" page="0" chnl="15" />
    <char id="184" x="117" y="147" width="7" height="7" xoffset="-1" yoffset="15" xadvance="5" page="0" chnl="15" />
    <char id="185" x="194" y="135" width="6" height="10" xoffset="-1" yoffset="3" xadvance="5" page="0" chnl="15" />
    <char id="186" x="126" y="136" width="10" height="10" xoffset="-1" yoffset="3" xadvance="8" page="0" chnl="15" />
    <char id="187" x="137" y="136" width="10" height="10" xoffset="-1" yoffset="8" xadvance="9" page="0" chnl="15" />
    <char id="188" x="90" y="40" width="14" height="16" xoffset="0" yoffset="2" xadvance="13" page="0" chnl="15" />
    <char id="189" x="74" y="41" width="15" height="16" xoffset="0" yoffset="2" xadvance="13" page="0" chnl="15" />
    <char id="190" x="56" y="41" width="17" height="16" xoffset="-1" yoffset="2" xadvance="15" page="0" chnl="15" />
    <char id="191" x="217" y="56" width="11" height="16" xoffset="-1" yoffset="6" xadvance="9" page="0" chnl="15" />
    <char id="192" x="162" y="0" width="14" height="19" xoffset="-1" yoffset="-1" xadvance="11" page="0" chnl="15" />
    <char id="193" x="147" y="0" width="14" height="19" xoffset="-1" yoffset="-1" xadvance="11" page="0" chnl="15" />
    <char id="194" x="132" y="0" width="14" height="19" xoffset="-1" yoffset="-1" xadvance="11" page="0" chnl="15" />
    <char id="195" x="117" y="0" width="14" height="19" xoffset="-1" yoffset="-1" xadvance="11" page="0" chnl="15" />
    <char id="196" x="220" y="20" width="14" height="18" xoffset="-1" yoffset="0" xadvance="11" page="0" chnl="15" />
    <char id="197" x="102" y="0" width="14" height="19" xoffset="-1" yoffset="-1" xadvance="11" page="0" chnl="15" />
    <char id="198" x="79" y="75" width="19" height="15" xoffset="-1" yoffset="3" xadvance="17" page="0" chnl="15" />
    <char id="199" x="59" y="21" width="13" height="19" xoffset="-1" yoffset="3" xadvance="11" page="0" chnl="15" />
    <char id="200" x="126" y="20" width="11" height="19" xoffset="0" yoffset="-1" xadvance="10" page="0" chnl="15" />
    <char id="201" x="138" y="20" width="11" height="19" xoffset="0" yoffset="-1" xadvance="10" page="0" chnl="15" />
    <char id="202" x="150" y="20" width="11" height="19" xoffset="0" yoffset="-1" xadvance="10" page="0" chnl="15" />
    <char id="203" x="235" y="20" width="11" height="18" xoffset="0" yoffset="0" xadvance="10" page="0" chnl="15" />
    <char id="204" x="172" y="20" width="8" height="19" xoffset="-2" yoffset="-1" xadvance="5" page="0" chnl="15" />
    <char id="205" x="181" y="20" width="8" height="19" xoffset="-1" yoffset="-1" xadvance="5" page="0" chnl="15" />
    <char id="206" x="162" y="20" width="9" height="19" xoffset="-2" yoffset="-1" xadvance="5" page="0" chnl="15" />
    <char id="207" x="0" y="42" width="10" height="18" xoffset="-2" yoffset="0" xadvance="5" page="0" chnl="15" />
    <char id="208" x="200" y="90" width="13" height="15" xoffset="-1" yoffset="3" xadvance="12" page="0" chnl="15" />
    <char id="209" x="45" y="21" width="13" height="19" xoffset="0" yoffset="-1" xadvance="12" page="0" chnl="15" />
    <char id="210" x="222" y="0" width="14" height="19" xoffset="-1" yoffset="-1" xadvance="12" page="0" chnl="15" />
    <char id="211" x="0" y="22" width="14" height="19" xoffset="-1" yoffset="-1" xadvance="12" page="0" chnl="15" />
    <char id="212" x="192" y="0" width="14" height="19" xoffset="-1" yoffset="-1" xadvance="12" page="0" chnl="15" />
    <char id="213" x="207" y="0" width="14" height="19" xoffset="-1" yoffset="-1" xadvance="12" page="0" chnl="15" />
    <char id="214" x="190" y="20" width="14" height="18" xoffset="-1" yoffset="0" xadvance="12" page="0" chnl="15" />
    <char id="215" x="62" y="142" width="11" height="12" xoffset="-1" yoffset="5" xadvance="9" page="0" chnl="15" />
    <char id="216" x="105" y="40" width="14" height="16" xoffset="-1" yoffset="3" xadvance="12" page="0" chnl="15" />
    <char id="217" x="30" y="21" width="14" height="19" xoffset="-1" yoffset="-1" xadvance="12" page="0" chnl="15" />
    <char id="218" x="15" y="22" width="14" height="19" xoffset="-1" yoffset="-1" xadvance="12" page="0" chnl="15" />
    <char id="219" x="237" y="0" width="14" height="19" xoffset="-1" yoffset="-1" xadvance="12" page="0" chnl="15" />
    <char id="220" x="205" y="20" width="14" height="18" xoffset="-1" yoffset="0" xadvance="12" page="0" chnl="15" />
    <char id="221" x="177" y="0" width="14" height="19" xoffset="-1" yoffset="-1" xadvance="11" page="0" chnl="15" />
    <char id="222" x="65" y="108" width="12" height="15" xoffset="0" yoffset="3" xadvance="11" page="0" chnl="15" />
    <char id="223" x="143" y="57" width="12" height="16" xoffset="0" yoffset="2" xadvance="11" page="0" chnl="15" />
    <char id="224" x="26" y="60" width="12" height="16" xoffset="-1" yoffset="2" xadvance="9" page="0" chnl="15" />
    <char id="225" x="13" y="61" width="12" height="16" xoffset="-1" yoffset="2" xadvance="9" page="0" chnl="15" />
    <char id="226" x="0" y="61" width="12" height="16" xoffset="-1" yoffset="2" xadvance="9" page="0" chnl="15" />
    <char id="227" x="237" y="39" width="12" height="16" xoffset="-1" yoffset="2" xadvance="9" page="0" chnl="15" />
    <char id="228" x="39" y="110" width="12" height="15" xoffset="-1" yoffset="3" xadvance="9" page="0" chnl="15" />
    <char id="229" x="172" y="40" width="12" height="16" xoffset="-1" yoffset="2" xadvance="9" page="0" chnl="15" />
    <char id="230" x="147" y="122" width="17" height="12" xoffset="-1" yoffset="6" xadvance="15" page="0" chnl="15" />
    <char id="231" x="193" y="57" width="11" height="16" xoffset="-1" yoffset="6" xadvance="9" page="0" chnl="15" />
    <char id="232" x="181" y="57" width="11" height="16" xoffset="-1" yoffset="2" xadvance="9" page="0" chnl="15" />
    <char id="233" x="169" y="57" width="11" height="16" xoffset="-1" yoffset="2" xadvance="9" page="0" chnl="15" />
    <char id="234" x="205" y="56" width="11" height="16" xoffset="-1" yoffset="2" xadvance="9" page="0" chnl="15" />
    <char id="235" x="12" y="127" width="11" height="15" xoffset="-1" yoffset="3" xadvance="9" page="0" chnl="15" />
    <char id="236" x="38" y="77" width="8" height="16" xoffset="-2" yoffset="2" xadvance="5" page="0" chnl="15" />
    <char id="237" x="29" y="77" width="8" height="16" xoffset="-1" yoffset="2" xadvance="5" page="0" chnl="15" />
    <char id="238" x="10" y="78" width="9" height="16" xoffset="-2" yoffset="2" xadvance="5" page="0" chnl="15" />
    <char id="239" x="245" y="73" width="10" height="15" xoffset="-2" yoffset="3" xadvance="5" page="0" chnl="15" />
    <char id="240" x="224" y="39" width="12" height="16" xoffset="-1" yoffset="2" xadvance="10" page="0" chnl="15" />
    <char id="241" x="146" y="40" width="12" height="16" xoffset="-1" yoffset="2" xadvance="10" page="0" chnl="15" />
    <char id="242" x="52" y="59" width="12" height="16" xoffset="-1" yoffset="2" xadvance="10" page="0" chnl="15" />
    <char id="243" x="65" y="58" width="12" height="16" xoffset="-1" yoffset="2" xadvance="10" page="0" chnl="15" />
    <char id="244" x="78" y="58" width="12" height="16" xoffset="-1" yoffset="2" xadvance="10" page="0" chnl="15" />
    <char id="245" x="91" y="57" width="12" height="16" xoffset="-1" yoffset="2" xadvance="10" page="0" chnl="15" />
    <char id="246" x="13" y="111" width="12" height="15" xoffset="-1" yoffset="3" xadvance="10" page="0" chnl="15" />
    <char id="247" x="124" y="122" width="12" height="13" xoffset="-1" yoffset="5" xadvance="10" page="0" chnl="15" />
    <char id="248" x="75" y="124" width="12" height="14" xoffset="-1" yoffset="5" xadvance="10" page="0" chnl="15" />
    <char id="249" x="104" y="57" width="12" height="16" xoffset="-1" yoffset="2" xadvance="10" page="0" chnl="15" />
    <char id="250" x="117" y="57" width="12" height="16" xoffset="-1" yoffset="2" xadvance="10" page="0" chnl="15" />
    <char id="251" x="130" y="57" width="12" height="16" xoffset="-1" yoffset="2" xadvance="10" page="0" chnl="15" />
    <char id="252" x="52" y="110" width="12" height="15" xoffset="-1" yoffset="3" xadvance="10" page="0" chnl="15" />
    <char id="253" x="17" y="0" width="12" height="20" xoffset="-1" yoffset="2" xadvance="9" page="0" chnl="15" />
    <char id="254" x="30" y="0" width="11" height="20" xoffset="0" yoffset="2" xadvance="10" page="0" chnl="15" />
    <char id="255" x="100" y="20" width="12" height="19" xoffset="-1" yoffset="3" xadvance="9" page="0" chnl="15" />
    <char id="700" x="52" y="155" width="5" height="8" xoffset="0" yoffset="3" xadvance="5" page="0" chnl="15" />
    <char id="710" x="74" y="163" width="9" height="5" xoffset="0" yoffset="2" xadvance="9" page="0" chnl="15" />
    <char id="711" x="22" y="165" width="10" height="5" xoffset="-1" yoffset="2" xadvance="8" page="0" chnl="15" />
    <char id="713" x="64" y="163" width="9" height="5" xoffset="0" yoffset="3" xadvance="9" page="0" chnl="15" />
    <char id="728" x="54" y="164" width="9" height="5" xoffset="-1" yoffset="3" xadvance="8" page="0" chnl="15" />
    <char id="729" x="127" y="155" width="6" height="5" xoffset="0" yoffset="3" xadvance="5" page="0" chnl="15" />
    <char id="730" x="181" y="146" width="6" height="6" xoffset="0" yoffset="3" xadvance="6" page="0" chnl="15" />
    <char id="731" x="109" y="150" width="7" height="7" xoffset="-1" yoffset="15" xadvance="5" page="0" chnl="15" />
    <char id="732" x="153" y="146" width="10" height="6" xoffset="-1" yoffset="2" xadvance="8" page="0" chnl="15" />
    <char id="733" x="11" y="165" width="10" height="5" xoffset="0" yoffset="2" xadvance="7" page="0" chnl="15" />
    <char id="755" x="134" y="155" width="6" height="5" xoffset="0" yoffset="17" xadvance="6" page="0" chnl="15" />
    <char id="768" x="188" y="146" width="6" height="6" xoffset="-8" yoffset="5" xadvance="0" page="0" chnl="15" />
    <char id="769" x="174" y="146" width="6" height="6" xoffset="-7" yoffset="5" xadvance="0" page="0" chnl="15" />
    <char id="771" x="164" y="146" width="9" height="6" xoffset="-9" yoffset="2" xadvance="0" page="0" chnl="15" />
    <char id="777" x="133" y="147" width="6" height="7" xoffset="-8" yoffset="0" xadvance="0" page="0" chnl="15" />
    <char id="783" x="241" y="144" width="11" height="5" xoffset="-11" yoffset="2" xadvance="0" page="0" chnl="15" />
    <char id="803" x="120" y="155" width="6" height="5" xoffset="-8" yoffset="16" xadvance="0" page="0" chnl="15" />
    <char id="8192" x="181" y="153" width="3" height="3" xoffset="-1" yoffset="-1" xadvance="9" page="0" chnl="15" />
    <char id="8193" x="185" y="153" width="3" height="3" xoffset="-1" yoffset="-1" xadvance="18" page="0" chnl="15" />
    <char id="8194" x="189" y="153" width="3" height="3" xoffset="-1" yoffset="-1" xadvance="9" page="0" chnl="15" />
    <char id="8195" x="193" y="153" width="3" height="3" xoffset="-1" yoffset="-1" xadvance="18" page="0" chnl="15" />
    <char id="8196" x="233" y="151" width="3" height="3" xoffset="-1" yoffset="-1" xadvance="6" page="0" chnl="15" />
    <char id="8197" x="201" y="152" width="3" height="3" xoffset="-1" yoffset="-1" xadvance="4" page="0" chnl="15" />
    <char id="8198" x="205" y="152" width="3" height="3" xoffset="-1" yoffset="-1" xadvance="3" page="0" chnl="15" />
    <char id="8199" x="209" y="152" width="3" height="3" xoffset="-1" yoffset="-1" xadvance="10" page="0" chnl="15" />
    <char id="8200" x="213" y="151" width="3" height="3" xoffset="-1" yoffset="-1" xadvance="5" page="0" chnl="15" />
    <char id="8201" x="217" y="151" width="3" height="3" xoffset="-1" yoffset="-1" xadvance="4" page="0" chnl="15" />
    <char id="8202" x="197" y="152" width="3" height="3" xoffset="-1" yoffset="-1" xadvance="2" page="0" chnl="15" />
    <char id="8203" x="225" y="151" width="3" height="3" xoffset="-1" yoffset="-1" xadvance="0" page="0" chnl="15" />
    <char id="8211" x="227" y="145" width="13" height="5" xoffset="0" yoffset="8" xadvance="12" page="0" chnl="15" />
    <char id="8212" x="211" y="145" width="15" height="5" xoffset="-1" yoffset="8" xadvance="14" page="0" chnl="15" />
    <char id="8213" x="195" y="146" width="15" height="5" xoffset="-1" yoffset="8" xadvance="14" page="0" chnl="15" />
    <char id="8215" x="89" y="152" width="10" height="7" xoffset="-1" yoffset="15" xadvance="8" page="0" chnl="15" />
    <char id="8216" x="58" y="155" width="5" height="8" xoffset="0" yoffset="3" xadvance="5" page="0" chnl="15" />
    <char id="8217" x="46" y="156" width="5" height="8" xoffset="0" yoffset="3" xadvance="5" page="0" chnl="15" />
    <char id="8218" x="147" y="147" width="5" height="7" xoffset="0" yoffset="13" xadvance="5" page="0" chnl="15" />
    <char id="8219" x="40" y="156" width="5" height="8" xoffset="-1" yoffset="3" xadvance="4" page="0" chnl="15" />
    <char id="8220" x="9" y="156" width="8" height="8" xoffset="0" yoffset="3" xadvance="7" page="0" chnl="15" />
    <char id="8221" x="0" y="156" width="8" height="8" xoffset="0" yoffset="3" xadvance="8" page="0" chnl="15" />
    <char id="8222" x="100" y="151" width="8" height="7" xoffset="0" yoffset="13" xadvance="8" page="0" chnl="15" />
    <char id="8224" x="130" y="106" width="12" height="15" xoffset="-1" yoffset="3" xadvance="9" page="0" chnl="15" />
    <char id="8225" x="87" y="20" width="12" height="19" xoffset="-1" yoffset="3" xadvance="10" page="0" chnl="15" />
    <char id="8226" x="18" y="156" width="7" height="8" xoffset="0" yoffset="6" xadvance="6" page="0" chnl="15" />
    <char id="8229" x="161" y="153" width="9" height="4" xoffset="0" yoffset="14" xadvance="9" page="0" chnl="15" />
    <char id="8230" x="147" y="155" width="13" height="4" xoffset="0" yoffset="14" xadvance="13" page="0" chnl="15" />
    <char id="8240" x="59" y="76" width="19" height="15" xoffset="-1" yoffset="3" xadvance="17" page="0" chnl="15" />
    <char id="8242" x="26" y="156" width="6" height="8" xoffset="-1" yoffset="3" xadvance="4" page="0" chnl="15" />
    <char id="8243" x="235" y="135" width="8" height="8" xoffset="0" yoffset="3" xadvance="7" page="0" chnl="15" />
    <char id="8249" x="186" y="135" width="7" height="10" xoffset="-1" yoffset="8" xadvance="5" page="0" chnl="15" />
    <char id="8250" x="178" y="135" width="7" height="10" xoffset="-1" yoffset="8" xadvance="5" page="0" chnl="15" />
    <char id="8252" x="36" y="127" width="10" height="15" xoffset="0" yoffset="3" xadvance="10" page="0" chnl="15" />
    <char id="8260" x="100" y="123" width="10" height="14" xoffset="-1" yoffset="4" xadvance="8" page="0" chnl="15" />
  </chars>
  <kernings count="467">
    <kerning first="8221" second="246" amount="-1" />
    <kerning first="8221" second="245" amount="-1" />
    <kerning first="34" second="65" amount="-1" />
    <kerning first="8221" second="244" amount="-1" />
    <kerning first="34" second="99" amount="-1" />
    <kerning first="34" second="100" amount="-1" />
    <kerning first="34" second="101" amount="-1" />
    <kerning first="34" second="103" amount="-1" />
    <kerning first="8221" second="243" amount="-1" />
    <kerning first="8221" second="242" amount="-1" />
    <kerning first="34" second="111" amount="-1" />
    <kerning first="8221" second="235" amount="-1" />
    <kerning first="34" second="113" amount="-1" />
    <kerning first="34" second="115" amount="-1" />
    <kerning first="34" second="192" amount="-1" />
    <kerning first="34" second="193" amount="-1" />
    <kerning first="34" second="194" amount="-1" />
    <kerning first="34" second="195" amount="-1" />
    <kerning first="34" second="196" amount="-1" />
    <kerning first="34" second="197" amount="-1" />
    <kerning first="8221" second="234" amount="-1" />
    <kerning first="8221" second="233" amount="-1" />
    <kerning first="8221" second="232" amount="-1" />
    <kerning first="8221" second="231" amount="-1" />
    <kerning first="8221" second="197" amount="-1" />
    <kerning first="8221" second="196" amount="-1" />
    <kerning first="34" second="231" amount="-1" />
    <kerning first="34" second="232" amount="-1" />
    <kerning first="34" second="233" amount="-1" />
    <kerning first="34" second="234" amount="-1" />
    <kerning first="34" second="235" amount="-1" />
    <kerning first="8221" second="195" amount="-1" />
    <kerning first="34" second="242" amount="-1" />
    <kerning first="34" second="243" amount="-1" />
    <kerning first="34" second="244" amount="-1" />
    <kerning first="34" second="245" amount="-1" />
    <kerning first="34" second="246" amount="-1" />
    <kerning first="8221" second="194" amount="-1" />
    <kerning first="8221" second="193" amount="-1" />
    <kerning first="8221" second="192" amount="-1" />
    <kerning first="8221" second="115" amount="-1" />
    <kerning first="8221" second="113" amount="-1" />
    <kerning first="8221" second="111" amount="-1" />
    <kerning first="8221" second="103" amount="-1" />
    <kerning first="8221" second="101" amount="-1" />
    <kerning first="39" second="65" amount="-1" />
    <kerning first="8221" second="100" amount="-1" />
    <kerning first="39" second="99" amount="-1" />
    <kerning first="39" second="100" amount="-1" />
    <kerning first="39" second="101" amount="-1" />
    <kerning first="39" second="103" amount="-1" />
    <kerning first="8221" second="99" amount="-1" />
    <kerning first="8221" second="65" amount="-1" />
    <kerning first="39" second="111" amount="-1" />
    <kerning first="8220" second="246" amount="-1" />
    <kerning first="39" second="113" amount="-1" />
    <kerning first="39" second="115" amount="-1" />
    <kerning first="39" second="192" amount="-1" />
    <kerning first="39" second="193" amount="-1" />
    <kerning first="39" second="194" amount="-1" />
    <kerning first="39" second="195" amount="-1" />
    <kerning first="39" second="196" amount="-1" />
    <kerning first="39" second="197" amount="-1" />
    <kerning first="8220" second="245" amount="-1" />
    <kerning first="8220" second="244" amount="-1" />
    <kerning first="8220" second="243" amount="-1" />
    <kerning first="8220" second="242" amount="-1" />
    <kerning first="8220" second="235" amount="-1" />
    <kerning first="8220" second="234" amount="-1" />
    <kerning first="39" second="231" amount="-1" />
    <kerning first="39" second="232" amount="-1" />
    <kerning first="39" second="233" amount="-1" />
    <kerning first="39" second="234" amount="-1" />
    <kerning first="39" second="235" amount="-1" />
    <kerning first="8220" second="233" amount="-1" />
    <kerning first="39" second="242" amount="-1" />
    <kerning first="39" second="243" amount="-1" />
    <kerning first="39" second="244" amount="-1" />
    <kerning first="39" second="245" amount="-1" />
    <kerning first="39" second="246" amount="-1" />
    <kerning first="8220" second="232" amount="-1" />
    <kerning first="8220" second="231" amount="-1" />
    <kerning first="8220" second="197" amount="-1" />
    <kerning first="8220" second="196" amount="-1" />
    <kerning first="8220" second="195" amount="-1" />
    <kerning first="8220" second="194" amount="-1" />
    <kerning first="8220" second="193" amount="-1" />
    <kerning first="8220" second="192" amount="-1" />
    <kerning first="8220" second="115" amount="-1" />
    <kerning first="8220" second="113" amount="-1" />
    <kerning first="65" second="34" amount="-1" />
    <kerning first="65" second="39" amount="-1" />
    <kerning first="65" second="63" amount="-1" />
    <kerning first="65" second="84" amount="-1" />
    <kerning first="8220" second="111" amount="-1" />
    <kerning first="65" second="86" amount="-1" />
    <kerning first="8220" second="103" amount="-1" />
    <kerning first="65" second="89" amount="-2" />
    <kerning first="8220" second="101" amount="-1" />
    <kerning first="8220" second="100" amount="-1" />
    <kerning first="8220" second="99" amount="-1" />
    <kerning first="8220" second="65" amount="-1" />
    <kerning first="8217" second="246" amount="-1" />
    <kerning first="8217" second="245" amount="-1" />
    <kerning first="8217" second="244" amount="-1" />
    <kerning first="8217" second="243" amount="-1" />
    <kerning first="8217" second="242" amount="-1" />
    <kerning first="8217" second="235" amount="-1" />
    <kerning first="8217" second="234" amount="-1" />
    <kerning first="8217" second="233" amount="-1" />
    <kerning first="8217" second="232" amount="-1" />
    <kerning first="8217" second="231" amount="-1" />
    <kerning first="8217" second="197" amount="-1" />
    <kerning first="65" second="8216" amount="-1" />
    <kerning first="65" second="8217" amount="-1" />
    <kerning first="65" second="8220" amount="-1" />
    <kerning first="65" second="8221" amount="-1" />
    <kerning first="8217" second="196" amount="-1" />
    <kerning first="8217" second="195" amount="-1" />
    <kerning first="8217" second="194" amount="-1" />
    <kerning first="8217" second="193" amount="-1" />
    <kerning first="8217" second="192" amount="-1" />
    <kerning first="8217" second="115" amount="-1" />
    <kerning first="8217" second="113" amount="-1" />
    <kerning first="68" second="44" amount="-1" />
    <kerning first="68" second="46" amount="-1" />
    <kerning first="68" second="58" amount="-1" />
    <kerning first="8217" second="111" amount="-1" />
    <kerning first="8217" second="103" amount="-1" />
    <kerning first="8217" second="101" amount="-1" />
    <kerning first="8217" second="100" amount="-1" />
    <kerning first="8217" second="99" amount="-1" />
    <kerning first="8217" second="65" amount="-1" />
    <kerning first="8216" second="246" amount="-1" />
    <kerning first="8216" second="245" amount="-1" />
    <kerning first="8216" second="244" amount="-1" />
    <kerning first="8216" second="243" amount="-1" />
    <kerning first="8216" second="242" amount="-1" />
    <kerning first="8216" second="235" amount="-1" />
    <kerning first="8216" second="234" amount="-1" />
    <kerning first="8216" second="233" amount="-1" />
    <kerning first="8216" second="232" amount="-1" />
    <kerning first="68" second="8218" amount="-1" />
    <kerning first="68" second="8222" amount="-1" />
    <kerning first="68" second="8230" amount="-1" />
    <kerning first="8216" second="231" amount="-1" />
    <kerning first="8216" second="197" amount="-1" />
    <kerning first="8216" second="196" amount="-1" />
    <kerning first="8216" second="195" amount="-1" />
    <kerning first="8216" second="194" amount="-1" />
    <kerning first="8216" second="193" amount="-1" />
    <kerning first="8216" second="192" amount="-1" />
    <kerning first="8216" second="115" amount="-1" />
    <kerning first="8216" second="113" amount="-1" />
    <kerning first="8216" second="111" amount="-1" />
    <kerning first="8216" second="103" amount="-1" />
    <kerning first="8216" second="101" amount="-1" />
    <kerning first="8216" second="100" amount="-1" />
    <kerning first="8216" second="99" amount="-1" />
    <kerning first="8216" second="65" amount="-1" />
    <kerning first="255" second="8230" amount="-1" />
    <kerning first="255" second="8222" amount="-1" />
    <kerning first="255" second="8218" amount="-1" />
    <kerning first="255" second="58" amount="-1" />
    <kerning first="255" second="46" amount="-1" />
    <kerning first="255" second="44" amount="-1" />
    <kerning first="214" second="8230" amount="-1" />
    <kerning first="214" second="8222" amount="-1" />
    <kerning first="214" second="8218" amount="-1" />
    <kerning first="214" second="58" amount="-1" />
    <kerning first="214" second="46" amount="-1" />
    <kerning first="214" second="44" amount="-1" />
    <kerning first="70" second="44" amount="-2" />
    <kerning first="70" second="46" amount="-2" />
    <kerning first="70" second="58" amount="-2" />
    <kerning first="70" second="65" amount="-1" />
    <kerning first="213" second="8230" amount="-1" />
    <kerning first="213" second="8222" amount="-1" />
    <kerning first="213" second="8218" amount="-1" />
    <kerning first="213" second="58" amount="-1" />
    <kerning first="213" second="46" amount="-1" />
    <kerning first="213" second="44" amount="-1" />
    <kerning first="212" second="8230" amount="-1" />
    <kerning first="212" second="8222" amount="-1" />
    <kerning first="212" second="8218" amount="-1" />
    <kerning first="212" second="58" amount="-1" />
    <kerning first="212" second="46" amount="-1" />
    <kerning first="70" second="192" amount="-1" />
    <kerning first="70" second="193" amount="-1" />
    <kerning first="70" second="194" amount="-1" />
    <kerning first="70" second="195" amount="-1" />
    <kerning first="70" second="196" amount="-1" />
    <kerning first="70" second="197" amount="-1" />
    <kerning first="212" second="44" amount="-1" />
    <kerning first="211" second="8230" amount="-1" />
    <kerning first="211" second="8222" amount="-1" />
    <kerning first="211" second="8218" amount="-1" />
    <kerning first="211" second="58" amount="-1" />
    <kerning first="211" second="46" amount="-1" />
    <kerning first="211" second="44" amount="-1" />
    <kerning first="210" second="8230" amount="-1" />
    <kerning first="210" second="8222" amount="-1" />
    <kerning first="210" second="8218" amount="-1" />
    <kerning first="210" second="58" amount="-1" />
    <kerning first="210" second="46" amount="-1" />
    <kerning first="210" second="44" amount="-1" />
    <kerning first="197" second="8221" amount="-1" />
    <kerning first="197" second="8220" amount="-1" />
    <kerning first="197" second="8217" amount="-1" />
    <kerning first="197" second="8216" amount="-1" />
    <kerning first="197" second="89" amount="-2" />
    <kerning first="197" second="86" amount="-1" />
    <kerning first="197" second="84" amount="-1" />
    <kerning first="197" second="63" amount="-1" />
    <kerning first="197" second="39" amount="-1" />
    <kerning first="197" second="34" amount="-1" />
    <kerning first="70" second="8218" amount="-2" />
    <kerning first="70" second="8222" amount="-2" />
    <kerning first="70" second="8230" amount="-2" />
    <kerning first="196" second="8221" amount="-1" />
    <kerning first="196" second="8220" amount="-1" />
    <kerning first="196" second="8217" amount="-1" />
    <kerning first="196" second="8216" amount="-1" />
    <kerning first="196" second="89" amount="-2" />
    <kerning first="196" second="86" amount="-1" />
    <kerning first="196" second="84" amount="-1" />
    <kerning first="196" second="63" amount="-1" />
    <kerning first="196" second="39" amount="-1" />
    <kerning first="196" second="34" amount="-1" />
    <kerning first="195" second="8221" amount="-1" />
    <kerning first="195" second="8220" amount="-1" />
    <kerning first="195" second="8217" amount="-1" />
    <kerning first="195" second="8216" amount="-1" />
    <kerning first="195" second="89" amount="-2" />
    <kerning first="195" second="86" amount="-1" />
    <kerning first="195" second="84" amount="-1" />
    <kerning first="195" second="63" amount="-1" />
    <kerning first="195" second="39" amount="-1" />
    <kerning first="195" second="34" amount="-1" />
    <kerning first="194" second="8221" amount="-1" />
    <kerning first="194" second="8220" amount="-1" />
    <kerning first="194" second="8217" amount="-1" />
    <kerning first="194" second="8216" amount="-1" />
    <kerning first="194" second="89" amount="-2" />
    <kerning first="194" second="86" amount="-1" />
    <kerning first="194" second="84" amount="-1" />
    <kerning first="194" second="63" amount="-1" />
    <kerning first="194" second="39" amount="-1" />
    <kerning first="194" second="34" amount="-1" />
    <kerning first="193" second="8221" amount="-1" />
    <kerning first="193" second="8220" amount="-1" />
    <kerning first="75" second="45" amount="-1" />
    <kerning first="193" second="8217" amount="-1" />
    <kerning first="193" second="8216" amount="-1" />
    <kerning first="193" second="89" amount="-2" />
    <kerning first="193" second="86" amount="-1" />
    <kerning first="193" second="84" amount="-1" />
    <kerning first="193" second="63" amount="-1" />
    <kerning first="193" second="39" amount="-1" />
    <kerning first="193" second="34" amount="-1" />
    <kerning first="192" second="8221" amount="-1" />
    <kerning first="192" second="8220" amount="-1" />
    <kerning first="192" second="8217" amount="-1" />
    <kerning first="192" second="8216" amount="-1" />
    <kerning first="75" second="119" amount="-1" />
    <kerning first="192" second="89" amount="-2" />
    <kerning first="192" second="86" amount="-1" />
    <kerning first="192" second="84" amount="-1" />
    <kerning first="192" second="63" amount="-1" />
    <kerning first="192" second="39" amount="-1" />
    <kerning first="192" second="34" amount="-1" />
    <kerning first="121" second="8230" amount="-1" />
    <kerning first="121" second="8222" amount="-1" />
    <kerning first="121" second="8218" amount="-1" />
    <kerning first="121" second="58" amount="-1" />
    <kerning first="121" second="46" amount="-1" />
    <kerning first="121" second="44" amount="-1" />
    <kerning first="119" second="8230" amount="-1" />
    <kerning first="119" second="8222" amount="-1" />
    <kerning first="119" second="8218" amount="-1" />
    <kerning first="119" second="58" amount="-1" />
    <kerning first="119" second="46" amount="-1" />
    <kerning first="119" second="44" amount="-1" />
    <kerning first="118" second="8230" amount="-1" />
    <kerning first="118" second="8222" amount="-1" />
    <kerning first="118" second="8218" amount="-1" />
    <kerning first="118" second="58" amount="-1" />
    <kerning first="118" second="46" amount="-1" />
    <kerning first="118" second="44" amount="-1" />
    <kerning first="114" second="8230" amount="-1" />
    <kerning first="75" second="8211" amount="-1" />
    <kerning first="75" second="8212" amount="-1" />
    <kerning first="76" second="34" amount="-2" />
    <kerning first="76" second="39" amount="-2" />
    <kerning first="114" second="8222" amount="-1" />
    <kerning first="114" second="8218" amount="-1" />
    <kerning first="114" second="58" amount="-1" />
    <kerning first="114" second="46" amount="-1" />
    <kerning first="114" second="44" amount="-1" />
    <kerning first="76" second="84" amount="-2" />
    <kerning first="89" second="8230" amount="-2" />
    <kerning first="76" second="86" amount="-2" />
    <kerning first="76" second="87" amount="-1" />
    <kerning first="76" second="89" amount="-2" />
    <kerning first="89" second="8222" amount="-2" />
    <kerning first="76" second="118" amount="-1" />
    <kerning first="89" second="8218" amount="-2" />
    <kerning first="76" second="121" amount="-1" />
    <kerning first="89" second="8212" amount="-1" />
    <kerning first="89" second="8211" amount="-1" />
    <kerning first="89" second="248" amount="-1" />
    <kerning first="89" second="246" amount="-1" />
    <kerning first="89" second="245" amount="-1" />
    <kerning first="89" second="244" amount="-1" />
    <kerning first="89" second="243" amount="-1" />
    <kerning first="89" second="242" amount="-1" />
    <kerning first="89" second="235" amount="-1" />
    <kerning first="89" second="234" amount="-1" />
    <kerning first="89" second="233" amount="-1" />
    <kerning first="89" second="232" amount="-1" />
    <kerning first="89" second="231" amount="-1" />
    <kerning first="89" second="230" amount="-1" />
    <kerning first="89" second="229" amount="-1" />
    <kerning first="89" second="228" amount="-1" />
    <kerning first="89" second="227" amount="-1" />
    <kerning first="89" second="226" amount="-1" />
    <kerning first="89" second="225" amount="-1" />
    <kerning first="89" second="224" amount="-1" />
    <kerning first="89" second="220" amount="-1" />
    <kerning first="76" second="255" amount="-1" />
    <kerning first="89" second="219" amount="-1" />
    <kerning first="89" second="218" amount="-1" />
    <kerning first="89" second="217" amount="-1" />
    <kerning first="76" second="8216" amount="-2" />
    <kerning first="76" second="8217" amount="-2" />
    <kerning first="76" second="8220" amount="-2" />
    <kerning first="76" second="8221" amount="-2" />
    <kerning first="89" second="198" amount="-1" />
    <kerning first="89" second="197" amount="-1" />
    <kerning first="89" second="196" amount="-1" />
    <kerning first="89" second="195" amount="-1" />
    <kerning first="89" second="194" amount="-1" />
    <kerning first="89" second="193" amount="-1" />
    <kerning first="89" second="192" amount="-1" />
    <kerning first="89" second="171" amount="-1" />
    <kerning first="89" second="113" amount="-1" />
    <kerning first="89" second="111" amount="-1" />
    <kerning first="89" second="103" amount="-1" />
    <kerning first="89" second="101" amount="-1" />
    <kerning first="89" second="100" amount="-1" />
    <kerning first="89" second="99" amount="-1" />
    <kerning first="89" second="97" amount="-1" />
    <kerning first="89" second="85" amount="-1" />
    <kerning first="89" second="74" amount="-1" />
    <kerning first="89" second="65" amount="-1" />
    <kerning first="89" second="58" amount="-2" />
    <kerning first="89" second="46" amount="-2" />
    <kerning first="89" second="45" amount="-1" />
    <kerning first="89" second="44" amount="-2" />
    <kerning first="88" second="8212" amount="-1" />
    <kerning first="88" second="8211" amount="-1" />
    <kerning first="79" second="44" amount="-1" />
    <kerning first="79" second="46" amount="-1" />
    <kerning first="79" second="58" amount="-1" />
    <kerning first="88" second="45" amount="-1" />
    <kerning first="87" second="8230" amount="-1" />
    <kerning first="87" second="8222" amount="-1" />
    <kerning first="87" second="8218" amount="-1" />
    <kerning first="87" second="8212" amount="-1" />
    <kerning first="87" second="8211" amount="-1" />
    <kerning first="87" second="58" amount="-1" />
    <kerning first="87" second="46" amount="-1" />
    <kerning first="87" second="45" amount="-1" />
    <kerning first="87" second="44" amount="-1" />
    <kerning first="86" second="8230" amount="-2" />
    <kerning first="86" second="8222" amount="-2" />
    <kerning first="86" second="8218" amount="-2" />
    <kerning first="86" second="8212" amount="-1" />
    <kerning first="86" second="8211" amount="-1" />
    <kerning first="79" second="8218" amount="-1" />
    <kerning first="79" second="8222" amount="-1" />
    <kerning first="79" second="8230" amount="-1" />
    <kerning first="80" second="44" amount="-3" />
    <kerning first="80" second="46" amount="-3" />
    <kerning first="80" second="58" amount="-3" />
    <kerning first="80" second="65" amount="-2" />
    <kerning first="86" second="197" amount="-1" />
    <kerning first="86" second="196" amount="-1" />
    <kerning first="86" second="195" amount="-1" />
    <kerning first="86" second="194" amount="-1" />
    <kerning first="86" second="193" amount="-1" />
    <kerning first="86" second="192" amount="-1" />
    <kerning first="86" second="65" amount="-1" />
    <kerning first="86" second="58" amount="-2" />
    <kerning first="86" second="46" amount="-2" />
    <kerning first="86" second="45" amount="-1" />
    <kerning first="86" second="44" amount="-2" />
    <kerning first="80" second="192" amount="-2" />
    <kerning first="80" second="193" amount="-2" />
    <kerning first="80" second="194" amount="-2" />
    <kerning first="80" second="195" amount="-2" />
    <kerning first="80" second="196" amount="-2" />
    <kerning first="80" second="197" amount="-2" />
    <kerning first="80" second="198" amount="-3" />
    <kerning first="84" second="8230" amount="-2" />
    <kerning first="84" second="8222" amount="-2" />
    <kerning first="84" second="8218" amount="-2" />
    <kerning first="84" second="8212" amount="-2" />
    <kerning first="84" second="8211" amount="-2" />
    <kerning first="84" second="255" amount="-1" />
    <kerning first="84" second="252" amount="-1" />
    <kerning first="84" second="251" amount="-1" />
    <kerning first="84" second="250" amount="-1" />
    <kerning first="84" second="249" amount="-1" />
    <kerning first="84" second="248" amount="-1" />
    <kerning first="84" second="246" amount="-1" />
    <kerning first="84" second="245" amount="-1" />
    <kerning first="80" second="8218" amount="-3" />
    <kerning first="80" second="8222" amount="-3" />
    <kerning first="80" second="8230" amount="-3" />
    <kerning first="84" second="244" amount="-1" />
    <kerning first="84" second="243" amount="-1" />
    <kerning first="84" second="242" amount="-1" />
    <kerning first="84" second="241" amount="-1" />
    <kerning first="84" second="235" amount="-1" />
    <kerning first="84" second="234" amount="-1" />
    <kerning first="84" second="233" amount="-1" />
    <kerning first="84" second="232" amount="-1" />
    <kerning first="84" second="231" amount="-1" />
    <kerning first="84" second="44" amount="-2" />
    <kerning first="84" second="45" amount="-2" />
    <kerning first="84" second="46" amount="-2" />
    <kerning first="84" second="58" amount="-2" />
    <kerning first="84" second="65" amount="-1" />
    <kerning first="84" second="230" amount="-1" />
    <kerning first="84" second="229" amount="-1" />
    <kerning first="84" second="228" amount="-1" />
    <kerning first="84" second="227" amount="-1" />
    <kerning first="84" second="226" amount="-1" />
    <kerning first="84" second="225" amount="-1" />
    <kerning first="84" second="224" amount="-1" />
    <kerning first="84" second="198" amount="-2" />
    <kerning first="84" second="197" amount="-1" />
    <kerning first="84" second="97" amount="-1" />
    <kerning first="84" second="99" amount="-1" />
    <kerning first="84" second="100" amount="-1" />
    <kerning first="84" second="101" amount="-1" />
    <kerning first="84" second="103" amount="-1" />
    <kerning first="84" second="109" amount="-1" />
    <kerning first="84" second="110" amount="-1" />
    <kerning first="84" second="111" amount="-1" />
    <kerning first="84" second="112" amount="-1" />
    <kerning first="84" second="113" amount="-1" />
    <kerning first="84" second="114" amount="-1" />
    <kerning first="84" second="115" amount="-1" />
    <kerning first="84" second="117" amount="-1" />
    <kerning first="84" second="118" amount="-1" />
    <kerning first="84" second="196" amount="-1" />
    <kerning first="84" second="120" amount="-1" />
    <kerning first="84" second="121" amount="-1" />
    <kerning first="84" second="122" amount="-1" />
    <kerning first="84" second="171" amount="-1" />
    <kerning first="84" second="187" amount="-1" />
    <kerning first="84" second="192" amount="-1" />
    <kerning first="84" second="193" amount="-1" />
    <kerning first="84" second="194" amount="-1" />
    <kerning first="84" second="195" amount="-1" />
  </kernings>
</font>
