{
  "profiles": {
    "Somi.Desktop (NuroseGame)": {
      "commandName": "Project",
      "commandLineArgs": "NuroseGame.sln",
      "workingDirectory": "C:\\Users\\besmb\\source\\repos\\NuroseGame\\src\\Client"
    },
    "Profile 1": {
      "commandName": "Project",
      "commandLineArgs": "Nurose.Core\\Nurose.Core.csproj",
      "workingDirectory": "C:\\Users\\besmb\\source\\repos\\Nurose\\Nurose"
    },
    "Somi.Desktop (SampleProject)": {
      "commandName": "Project",
      "commandLineArgs": "C:\\Users\\besmb\\source\\repos\\Somi\\src\\SampleProject\\SampleProject.sln",
      "workingDirectory": "C:\\Users\\besmb\\source\\repos\\Somi\\src\\"
    }
  }
}